X,Y
0.002,7859.19
0.006,111456
0.01,373654
0.014,784171
0.018,1.34064e+06
0.022,2.02872e+06
0.026,2.83611e+06
0.03,3.75109e+06
0.034,4.77215e+06
0.038,5.86953e+06
0.042,7.04644e+06
0.046,8.28597e+06
0.05,9.57234e+06
0.054,1.08957e+07
0.058,1.22511e+07
0.062,1.362e+07
0.066,1.50031e+07
0.07,1.63777e+07
0.074,1.77397e+07
0.078,1.90911e+07
0.082,2.04095e+07
0.086,2.17196e+07
0.09,2.29741e+07
0.094,2.42049e+07
0.098,2.53737e+07
0.102,2.65285e+07
0.106,2.76079e+07
0.11,2.86655e+07
0.114,2.96739e+07
0.118,3.06329e+07
0.122,3.153e+07
0.126,3.24269e+07
0.13,3.32467e+07
0.134,3.40446e+07
0.138,3.47893e+07
0.142,3.5511e+07
0.146,3.62017e+07
0.15,3.68614e+07
0.154,3.74969e+07
0.158,3.80826e+07
0.162,3.86856e+07
0.166,3.92247e+07
0.17,3.97857e+07
0.174,4.0311e+07
0.178,4.08483e+07
0.182,4.13636e+07
0.186,4.18628e+07
0.19,4.23617e+07
0.194,4.28418e+07
0.198,4.33291e+07
0.202,4.38212e+07
0.206,4.43107e+07
0.21,4.47679e+07
0.214,4.52553e+07
0.218,4.57554e+07
0.222,4.62271e+07
0.226,4.67239e+07
0.23,4.72165e+07
0.234,4.76958e+07
0.238,4.81937e+07
0.242,4.86687e+07
0.246,4.9153e+07
0.25,4.96453e+07
0.254,5.01468e+07
0.258,5.06448e+07
0.262,5.1125e+07
0.266,5.16218e+07
0.27,5.21129e+07
0.274,5.26198e+07
0.278,5.30955e+07
0.282,5.35764e+07
0.286,5.40804e+07
0.29,5.45523e+07
0.294,5.50411e+07
0.298,5.55111e+07
0.302,5.5992e+07
0.306,5.64732e+07
0.31,5.69393e+07
0.314,5.74155e+07
0.318,5.78711e+07
0.322,5.83344e+07
0.326,5.8796e+07
0.33,5.92651e+07
0.334,5.97133e+07
0.338,6.01707e+07
0.342,6.06097e+07
0.346,6.1064e+07
0.35,6.15033e+07
0.354,6.19737e+07
0.358,6.2383e+07
0.362,6.28316e+07
0.366,6.32735e+07
0.37,6.37319e+07
0.374,6.41612e+07
0.378,6.45979e+07
0.382,6.50309e+07
0.386,6.54931e+07
0.39,6.59344e+07
0.394,6.64052e+07
0.398,6.68724e+07
0.402,6.73461e+07
0.406,6.78726e+07
0.41,6.83746e+07
0.414,6.88873e+07
0.418,6.94097e+07
0.422,6.99262e+07
0.426,7.04488e+07
0.43,7.09458e+07
0.434,7.14684e+07
0.438,7.19632e+07
0.442,7.24512e+07
0.446,7.29319e+07
0.45,7.34204e+07
0.454,7.38854e+07
0.458,7.43462e+07
0.462,7.48066e+07
0.466,7.5251e+07
0.47,7.56753e+07
0.474,7.61039e+07
0.478,7.65119e+07
0.482,7.69172e+07
0.486,7.73017e+07
0.49,7.76707e+07
0.494,7.80553e+07
0.498,7.84184e+07
0.502,7.87418e+07
0.506,7.9063e+07
0.51,7.93649e+07
0.514,7.96843e+07
0.518,7.99641e+07
0.522,8.02468e+07
0.526,8.04962e+07
0.53,8.07586e+07
0.534,8.09928e+07
0.538,8.12145e+07
0.542,8.14292e+07
0.546,8.16443e+07
0.55,8.17994e+07
0.554,8.19826e+07
0.558,8.21449e+07
0.562,8.229e+07
0.566,8.24418e+07
0.57,8.25394e+07
0.574,8.26427e+07
0.578,8.27363e+07
0.582,8.28243e+07
0.586,8.29127e+07
0.59,8.29878e+07
0.594,8.30188e+07
0.598,8.30641e+07
0.602,8.30932e+07
0.606,8.30983e+07
0.61,8.31065e+07
0.614,8.31093e+07
0.618,8.30634e+07
0.622,8.30276e+07
0.626,8.30072e+07
0.63,8.296e+07
0.634,8.28944e+07
0.638,8.28017e+07
0.642,8.27468e+07
0.646,8.26443e+07
0.65,8.25402e+07
0.654,8.24031e+07
0.658,8.23128e+07
0.662,8.21706e+07
0.666,8.20446e+07
0.67,8.1884e+07
0.674,8.17238e+07
0.678,8.1574e+07
0.682,8.13731e+07
0.686,8.1224e+07
0.69,8.10144e+07
0.694,8.08291e+07
0.698,8.06209e+07
0.702,8.04215e+07
0.706,8.01988e+07
0.71,7.99561e+07
0.714,7.97052e+07
0.718,7.94806e+07
0.722,7.92314e+07
0.726,7.8972e+07
0.73,7.87196e+07
0.734,7.84407e+07
0.738,7.8191e+07
0.742,7.78836e+07
0.746,7.7609e+07
0.75,7.73284e+07
0.754,7.70182e+07
0.758,7.67219e+07
0.762,7.64268e+07
0.766,7.61189e+07
0.77,7.58082e+07
0.774,7.54803e+07
0.778,7.51661e+07
0.782,7.48317e+07
0.786,7.45057e+07
0.79,7.41648e+07
0.794,7.38231e+07
0.798,7.34866e+07
0.802,7.31441e+07
0.806,7.27917e+07
0.81,7.24277e+07
0.814,7.20666e+07
0.818,7.17362e+07
0.822,7.13572e+07
0.826,7.10166e+07
0.83,7.06564e+07
0.834,7.02761e+07
0.838,6.99139e+07
0.842,6.95351e+07
0.846,6.91524e+07
0.85,6.87934e+07
0.854,6.8395e+07
0.858,6.80243e+07
0.862,6.76492e+07
0.866,6.7263e+07
0.87,6.6899e+07
0.874,6.64998e+07
0.878,6.61304e+07
0.882,6.57123e+07
0.886,6.5352e+07
0.89,6.49561e+07
0.894,6.45671e+07
0.898,6.41808e+07
0.902,6.38059e+07
0.906,6.34132e+07
0.91,6.302e+07
0.914,6.26398e+07
0.918,6.22455e+07
0.922,6.18609e+07
0.926,6.14619e+07
0.93,6.10852e+07
0.934,6.06738e+07
0.938,6.02873e+07
0.942,5.99069e+07
0.946,5.95118e+07
0.95,5.913e+07
0.954,5.87384e+07
0.958,5.83495e+07
0.962,5.79851e+07
0.966,5.75876e+07
0.97,5.72159e+07
0.974,5.68357e+07
0.978,5.64558e+07
0.982,5.60599e+07
0.986,5.56711e+07
0.99,5.5311e+07
0.994,5.49189e+07
0.998,5.45302e+07
1.002,5.4163e+07
1.006,5.37916e+07
1.01,5.34378e+07
1.014,5.30607e+07
1.018,5.26901e+07
1.022,5.23183e+07
1.026,5.1963e+07
1.03,5.15644e+07
1.034,5.12088e+07
1.038,5.08652e+07
1.042,5.05024e+07
1.046,5.01343e+07
1.05,4.97505e+07
1.054,4.94173e+07
1.058,4.90369e+07
1.062,4.87056e+07
1.066,4.83452e+07
1.07,4.79931e+07
1.074,4.76502e+07
1.078,4.72975e+07
1.082,4.6937e+07
1.086,4.66005e+07
1.09,4.62657e+07
1.094,4.59307e+07
1.098,4.55898e+07
1.102,4.5258e+07
1.106,4.49177e+07
1.11,4.45782e+07
1.114,4.42347e+07
1.118,4.39052e+07
1.122,4.35913e+07
1.126,4.32614e+07
1.13,4.29486e+07
1.134,4.26146e+07
1.138,4.23022e+07
1.142,4.19677e+07
1.146,4.1653e+07
1.15,4.1347e+07
1.154,4.10183e+07
1.158,4.07113e+07
1.162,4.041e+07
1.166,4.00944e+07
1.17,3.97893e+07
1.174,3.94821e+07
1.178,3.91865e+07
1.182,3.88786e+07
1.186,3.86047e+07
1.19,3.82811e+07
1.194,3.7993e+07
1.198,3.77e+07
1.202,3.742e+07
1.206,3.71085e+07
1.21,3.68193e+07
1.214,3.65532e+07
1.218,3.62785e+07
1.222,3.59881e+07
1.226,3.57061e+07
1.23,3.54135e+07
1.234,3.51479e+07
1.238,3.48874e+07
1.242,3.45959e+07
1.246,3.43373e+07
1.25,3.4047e+07
1.254,3.37932e+07
1.258,3.35307e+07
1.262,3.3263e+07
1.266,3.30038e+07
1.27,3.27463e+07
1.274,3.24827e+07
1.278,3.22324e+07
1.282,3.19716e+07
1.286,3.17114e+07
1.29,3.14602e+07
1.294,3.12152e+07
1.298,3.09722e+07
1.302,3.07306e+07
1.306,3.04876e+07
1.31,3.02552e+07
1.314,2.99868e+07
1.318,2.97648e+07
1.322,2.95136e+07
1.326,2.92924e+07
1.33,2.90436e+07
1.334,2.88214e+07
1.338,2.85886e+07
1.342,2.8356e+07
1.346,2.81282e+07
1.35,2.7906e+07
1.354,2.76853e+07
1.358,2.74497e+07
1.362,2.72405e+07
1.366,2.70224e+07
1.37,2.68053e+07
1.374,2.65884e+07
1.378,2.63726e+07
1.382,2.61593e+07
1.386,2.59426e+07
1.39,2.5721e+07
1.394,2.55362e+07
1.398,2.53311e+07
1.402,2.51184e+07
1.406,2.49167e+07
1.41,2.4719e+07
1.414,2.45114e+07
1.418,2.43175e+07
1.422,2.41263e+07
1.426,2.39184e+07
1.43,2.37297e+07
1.434,2.35314e+07
1.438,2.33486e+07
1.442,2.31411e+07
1.446,2.29561e+07
1.45,2.2776e+07
1.454,2.25875e+07
1.458,2.24083e+07
1.462,2.22174e+07
1.466,2.20419e+07
1.47,2.18605e+07
1.474,2.16816e+07
1.478,2.15006e+07
1.482,2.13132e+07
1.486,2.11482e+07
1.49,2.09643e+07
1.494,2.0787e+07
1.498,2.06291e+07
1.502,2.04672e+07
1.506,2.02796e+07
1.51,2.01132e+07
1.514,1.99519e+07
1.518,1.97719e+07
1.522,1.96132e+07
1.526,1.94479e+07
1.53,1.92939e+07
1.534,1.91242e+07
1.538,1.89698e+07
1.542,1.88022e+07
1.546,1.86592e+07
1.55,1.84979e+07
1.554,1.8341e+07
1.558,1.81854e+07
1.562,1.80391e+07
1.566,1.78878e+07
1.57,1.77403e+07
1.574,1.75941e+07
1.578,1.74418e+07
1.582,1.72984e+07
1.586,1.7145e+07
1.59,1.70013e+07
1.594,1.6862e+07
1.598,1.67248e+07
1.602,1.65775e+07
1.606,1.64461e+07
1.61,1.63088e+07
1.614,1.61719e+07
1.618,1.60394e+07
1.622,1.58917e+07
1.626,1.57692e+07
1.63,1.56378e+07
1.634,1.55037e+07
1.638,1.53629e+07
1.642,1.52334e+07
1.646,1.51197e+07
1.65,1.49848e+07
1.654,1.4872e+07
1.658,1.47418e+07
1.662,1.4613e+07
1.666,1.4483e+07
1.67,1.43716e+07
1.674,1.42508e+07
1.678,1.41224e+07
1.682,1.40114e+07
1.686,1.38959e+07
1.69,1.37864e+07
1.694,1.36635e+07
1.698,1.35456e+07
1.702,1.34294e+07
1.706,1.33179e+07
1.71,1.32104e+07
1.714,1.30938e+07
1.718,1.29904e+07
1.722,1.2871e+07
1.726,1.27705e+07
1.73,1.26756e+07
1.734,1.25618e+07
1.738,1.24522e+07
1.742,1.23468e+07
1.746,1.22409e+07
1.75,1.21403e+07
1.754,1.20422e+07
1.758,1.19436e+07
1.762,1.18375e+07
1.766,1.17429e+07
1.77,1.16426e+07
1.774,1.15542e+07
1.778,1.1446e+07
1.782,1.13572e+07
1.786,1.12568e+07
1.79,1.11712e+07
1.794,1.10645e+07
1.798,1.09722e+07
1.802,1.08855e+07
1.806,1.0797e+07
1.81,1.07032e+07
1.814,1.06158e+07
1.818,1.05333e+07
1.822,1.04427e+07
1.826,1.03522e+07
1.83,1.0261e+07
1.834,1.01768e+07
1.838,1.00922e+07
1.842,1.00157e+07
1.846,9.92802e+06
1.85,9.8491e+06
1.854,9.76177e+06
1.858,9.67968e+06
1.862,9.60355e+06
1.866,9.52474e+06
1.87,9.44729e+06
1.874,9.35634e+06
1.878,9.2833e+06
1.882,9.20665e+06
1.886,9.13645e+06
1.89,9.05382e+06
1.894,8.9763e+06
1.898,8.90206e+06
1.902,8.82618e+06
1.906,8.75932e+06
1.91,8.68132e+06
1.914,8.61302e+06
1.918,8.53972e+06
1.922,8.46328e+06
1.926,8.39821e+06
1.93,8.32398e+06
1.934,8.26003e+06
1.938,8.18971e+06
1.942,8.12304e+06
1.946,8.06334e+06
1.95,7.98787e+06
1.954,7.92677e+06
1.958,7.85564e+06
1.962,7.79529e+06
1.966,7.72841e+06
1.97,7.66673e+06
1.974,7.60183e+06
1.978,7.53662e+06
1.982,7.47733e+06
1.986,7.41234e+06
1.99,7.35169e+06
1.994,7.29223e+06
1.998,7.2401e+06
2.002,7.17472e+06
2.006,7.11544e+06
2.01,7.05052e+06
2.014,6.99695e+06
2.018,6.93924e+06
2.022,6.88639e+06
2.026,6.82742e+06
2.03,6.76605e+06
2.034,6.71529e+06
2.038,6.65737e+06
2.042,6.59981e+06
2.046,6.54596e+06
2.05,6.49309e+06
2.054,6.4364e+06
2.058,6.38168e+06
2.062,6.33458e+06
2.066,6.28424e+06
2.07,6.2269e+06
2.074,6.17645e+06
2.078,6.12615e+06
2.082,6.07305e+06
2.086,6.02899e+06
2.09,5.97387e+06
2.094,5.93186e+06
2.098,5.88054e+06
2.102,5.82509e+06
2.106,5.78779e+06
2.11,5.73345e+06
2.114,5.68879e+06
2.118,5.63671e+06
2.122,5.59734e+06
2.126,5.54567e+06
2.13,5.50575e+06
2.134,5.45468e+06
2.138,5.41366e+06
2.142,5.36794e+06
2.146,5.32601e+06
2.15,5.27643e+06
2.154,5.23404e+06
2.158,5.19473e+06
2.162,5.15091e+06
2.166,5.10683e+06
2.17,5.06857e+06
2.174,5.02929e+06
2.178,4.98432e+06
2.182,4.94412e+06
2.186,4.90785e+06
2.19,4.8584e+06
2.194,4.82166e+06
2.198,4.79149e+06
2.202,4.74759e+06
2.206,4.70911e+06
2.21,4.66984e+06
2.214,4.62491e+06
2.218,4.59104e+06
2.222,4.54888e+06
2.226,4.51782e+06
2.23,4.48732e+06
2.234,4.43936e+06
2.238,4.40979e+06
2.242,4.37038e+06
2.246,4.33386e+06
2.25,4.30251e+06
2.254,4.26772e+06
2.258,4.22842e+06
2.262,4.19453e+06
2.266,4.16402e+06
2.27,4.13016e+06
2.274,4.09382e+06
2.278,4.06338e+06
2.282,4.03243e+06
2.286,3.99632e+06
2.29,3.96126e+06
2.294,3.93401e+06
2.298,3.89879e+06
2.302,3.86914e+06
2.306,3.83808e+06
2.31,3.81191e+06
2.314,3.76745e+06
2.318,3.73973e+06
2.322,3.70913e+06
2.326,3.68099e+06
2.33,3.65712e+06
2.334,3.6202e+06
2.338,3.59115e+06
2.342,3.56555e+06
2.346,3.54149e+06
2.35,3.50832e+06
2.354,3.47856e+06
2.358,3.45239e+06
2.362,3.42021e+06
2.366,3.39393e+06
2.37,3.36629e+06
2.374,3.33746e+06
2.378,3.31086e+06
2.382,3.28481e+06
2.386,3.25779e+06
2.39,3.23346e+06
2.394,3.20521e+06
2.398,3.17812e+06
2.402,3.14763e+06
2.406,3.13137e+06
2.41,3.10222e+06
2.414,3.07711e+06
2.418,3.05275e+06
2.422,3.0257e+06
2.426,3.00986e+06
2.43,2.98537e+06
2.434,2.9563e+06
2.438,2.93107e+06
2.442,2.90291e+06
2.446,2.88519e+06
2.45,2.86311e+06
2.454,2.83867e+06
2.458,2.81931e+06
2.462,2.7894e+06
2.466,2.7711e+06
2.47,2.7495e+06
2.474,2.72435e+06
2.478,2.70412e+06
2.482,2.67921e+06
2.486,2.66261e+06
2.49,2.63941e+06
2.494,2.61718e+06
2.498,2.59563e+06
2.502,2.57446e+06
2.506,2.55927e+06
2.51,2.53594e+06
2.514,2.51056e+06
2.518,2.49387e+06
2.522,2.47537e+06
2.526,2.45714e+06
2.53,2.43232e+06
2.534,2.41338e+06
2.538,2.39647e+06
2.542,2.37389e+06
2.546,2.35361e+06
2.55,2.3383e+06
2.554,2.32237e+06
2.558,2.30071e+06
2.562,2.28241e+06
2.566,2.26178e+06
2.57,2.24639e+06
2.574,2.22647e+06
2.578,2.20853e+06
2.582,2.19475e+06
2.586,2.17363e+06
2.59,2.15427e+06
2.594,2.14016e+06
2.598,2.1252e+06
2.602,2.10393e+06
2.606,2.08893e+06
2.61,2.07109e+06
2.614,2.05458e+06
2.618,2.03853e+06
2.622,2.02028e+06
2.626,2.00718e+06
2.63,1.98813e+06
2.634,1.97451e+06
2.638,1.95647e+06
2.642,1.94105e+06
2.646,1.92445e+06
2.65,1.9084e+06
2.654,1.89583e+06
2.658,1.88119e+06
2.662,1.8631e+06
2.666,1.85091e+06
2.67,1.83565e+06
2.674,1.82044e+06
2.678,1.80558e+06
2.682,1.79115e+06
2.686,1.77707e+06
2.69,1.76297e+06
2.694,1.74923e+06
2.698,1.7337e+06
2.702,1.71916e+06
2.706,1.70801e+06
2.71,1.69538e+06
2.714,1.68242e+06
2.718,1.66884e+06
2.722,1.65199e+06
2.726,1.6412e+06
2.73,1.62999e+06
2.734,1.61644e+06
2.738,1.59894e+06
2.742,1.58989e+06
2.746,1.57658e+06
2.75,1.56109e+06
2.754,1.55066e+06
2.758,1.53795e+06
2.762,1.52604e+06
2.766,1.51409e+06
2.77,1.50255e+06
2.774,1.48999e+06
2.778,1.48043e+06
2.782,1.46387e+06
2.786,1.45562e+06
2.79,1.44323e+06
2.794,1.43424e+06
2.798,1.41966e+06
2.802,1.40727e+06
2.806,1.39827e+06
2.81,1.38833e+06
2.814,1.37654e+06
2.818,1.36742e+06
2.822,1.35516e+06
2.826,1.34418e+06
2.83,1.33256e+06
2.834,1.32186e+06
2.838,1.31164e+06
2.842,1.30011e+06
2.846,1.28877e+06
2.85,1.28156e+06
2.854,1.27004e+06
2.858,1.25989e+06
2.862,1.25057e+06
2.866,1.23897e+06
2.87,1.22975e+06
2.874,1.21942e+06
2.878,1.21093e+06
2.882,1.20045e+06
2.886,1.19272e+06
2.89,1.17927e+06
2.894,1.17397e+06
2.898,1.16389e+06
2.902,1.15357e+06
2.906,1.14473e+06
2.91,1.13665e+06
2.914,1.12805e+06
2.918,1.11614e+06
2.922,1.10939e+06
2.926,1.09912e+06
2.93,1.09129e+06
2.934,1.08286e+06
2.938,1.07449e+06
2.942,1.06505e+06
2.946,1.05792e+06
2.95,1.04906e+06
2.954,1.0395e+06
2.958,1.03249e+06
2.962,1.02427e+06
2.966,1.01636e+06
2.97,1.00538e+06
2.974,998840
2.978,992136
2.982,984351
2.986,976581
2.99,966921
2.994,956805
2.998,951337
3.002,945040
3.006,937469
3.01,929635
3.014,924158
3.018,914466
3.022,906437
3.026,900200
3.03,893604
3.034,886353
3.038,880233
3.042,874716
3.046,865102
3.05,857871
3.054,851660
3.058,845521
3.062,837933
3.066,831621
3.07,825072
3.074,816072
3.078,813525
3.082,806462
3.086,799717
3.09,791749
3.094,787022
3.098,781081
3.102,774504
3.106,766624
3.11,760212
3.114,756336
3.118,748434
3.122,742279
3.126,736397
3.13,733147
3.134,724503
3.138,720808
3.142,714236
3.146,708320
3.15,702209
3.154,696121
3.158,691405
3.162,685934
3.166,678943
3.17,674359
3.174,669879
3.178,664237
3.182,659042
3.186,654259
3.19,648671
3.194,643377
3.198,636274
3.202,633940
3.206,627963
3.21,622061
3.214,618725
3.218,614308
3.222,607214
3.226,603098
3.23,598207
3.234,593651
3.238,588618
3.242,584612
3.246,579253
3.25,573816
3.254,569799
3.258,564988
3.262,561596
3.266,556563
3.27,551881
3.274,546103
3.278,543768
3.282,539166
3.286,534842
3.29,529423
3.294,525470
3.298,522146
3.302,517608
3.306,513189
3.31,509348
3.314,505601
3.318,500750
3.322,495480
3.326,492339
3.33,489581
3.334,483784
3.338,481105
3.342,477493
3.346,474147
3.35,471829
3.354,467216
3.358,462736
3.362,458243
3.366,453298
3.37,450901
3.374,446462
3.378,442428
3.382,438795
3.386,435605
3.39,432700
3.394,428824
3.398,426018
3.402,422726
3.406,418391
3.41,416113
3.414,411706
3.418,408346
3.422,404973
3.426,402210
3.43,399123
3.434,395497
3.438,393323
3.442,389879
3.446,385989
3.45,382247
3.454,380184
3.458,375645
3.462,374890
3.466,370706
3.47,368810
3.474,365839
3.478,361031
3.482,358878
3.486,356688
3.49,352841
3.494,349341
3.498,347787
3.502,344464
3.506,340561
3.51,338654
3.514,334977
3.518,333584
3.522,330714
3.526,326051
3.53,325121
3.534,322023
3.538,320171
3.542,317052
3.546,313735
3.55,312510
3.554,309424
3.558,306335
3.562,303797
3.566,300485
3.57,298502
3.574,296516
3.578,293702
3.582,290784
3.586,288948
3.59,286240
3.594,283635
3.598,282835
3.602,280345
3.606,275985
3.61,274890
3.614,272799
3.618,270292
3.622,268580
3.626,267049
3.63,264176
3.634,259898
3.638,259785
3.642,257888
3.646,255550
3.65,252883
3.654,250509
3.658,249897
3.662,247603
3.666,245451
3.67,241953
3.674,239629
3.678,238257
3.682,238478
3.686,234834
3.69,232645
3.694,230470
3.698,229107
3.702,227091
3.706,225553
3.71,223309
3.714,220040
3.718,219080
3.722,217255
3.726,214882
3.73,214018
3.734,211544
3.738,210711
3.742,208749
3.746,206920
3.75,205107
3.754,203622
3.758,202552
3.762,199404
3.766,198085
3.77,197299
3.774,194435
3.778,193084
3.782,191583
3.786,189983
3.79,187839
3.794,186398
3.798,185121
3.802,183878
3.806,182402
3.81,180204
3.814,178237
3.818,177605
3.822,176011
3.826,174326
3.83,172598
3.834,170587
3.838,169407
3.842,167907
3.846,166426
3.85,165485
3.854,164533
3.858,161302
3.862,160725
3.866,159372
3.87,158162
3.874,156384
3.878,154196
3.882,154029
3.886,152367
3.89,150455
3.894,149433
3.898,148918
3.902,146793
3.906,146320
3.91,144682
3.914,143598
3.918,142126
3.922,140864
3.926,139140
3.93,138473
3.934,136875
3.938,136512
3.942,134547
3.946,133395
3.95,132440
3.954,131751
3.958,130468
3.962,128701
3.966,127929
3.97,125642
3.974,125090
3.978,124421
3.982,123386
3.986,122788
3.99,121343
3.994,120395
3.998,119290
4.002,118468
4.006,116555
4.01,115475
4.014,114921
4.018,113316
4.022,111764
4.026,111805
4.03,111212
4.034,110119
4.038,108843
4.042,107605
4.046,106963
4.05,105547
4.054,104498
4.058,104143
4.062,103392
4.066,101872
4.07,100625
4.074,100003
4.078,99241
4.082,98443.7
4.086,97632.2
4.09,95865.3
4.094,95617.3
4.098,94930.6
4.102,93887.7
4.106,93080.8
4.11,93054.2
4.114,91330.3
4.118,90944.9
4.122,89224
4.126,88220.3
4.13,87571
4.134,87172.3
4.138,86408.8
4.142,85213.1
4.146,84915.3
4.15,83310.3
4.154,82835.3
4.158,82035.1
4.162,81228.2
4.166,80714.3
4.17,80111.5
4.174,79575.2
4.178,78329.5
4.182,78003.8
4.186,77200
4.19,76173
4.194,75326
4.198,75003.5
4.202,74456.8
4.206,73296
4.21,73081.4
4.214,71934.3
4.218,71145.1
4.222,70408.7
4.226,70337.6
4.23,69361.8
4.234,68414.4
4.238,68065.4
4.242,67742.6
4.246,67069.2
4.25,66151.2
4.254,65403.5
4.258,65053.5
4.262,63968.2
4.266,63635.3
4.27,62975.7
4.274,62177.1
4.278,61374.6
4.282,61591.1
4.286,60781.7
4.29,60023
4.294,59578.5
4.298,58302.2
4.302,57700.4
4.306,57998.8
4.31,57082.8
4.314,56148.4
4.318,55671.5
4.322,55045
4.326,54907.9
4.33,53828.6
4.334,53614.2
4.338,53266.2
4.342,52808.8
4.346,51953.4
4.35,51285.4
4.354,50331.6
4.358,50523.1
4.362,49745.3
4.366,49287
4.37,48594.9
4.374,48491
4.378,48127.2
4.382,47594.5
4.386,47172.2
4.39,46359.6
4.394,46057.3
4.398,45850.1
4.402,45296.7
4.406,44836.3
4.41,44427.1
4.414,43562.5
4.418,43096.8
4.422,43323.8
4.426,42837.6
4.43,42050.1
4.434,41159.8
4.438,40905.2
4.442,40583.3
4.446,39914.7
4.45,40092.3
4.454,39401.7
4.458,39203.5
4.462,38244.2
4.466,38237.8
4.47,37738.7
4.474,37756.4
4.478,37205.4
4.482,36593.2
4.486,36267.6
4.49,35822.4
4.494,35414.3
4.498,35060.9
4.502,34477.3
4.506,33951.7
4.51,34156.7
4.514,33605.6
4.518,33275.7
4.522,32438.8
4.526,32497.2
4.53,31661.7
4.534,31949.3
4.538,31207.4
4.542,30864.5
4.546,30923.8
4.55,30588.3
4.554,29923.5
4.558,29898.5
4.562,28997
4.566,28578.3
4.57,28832.1
4.574,28500.5
4.578,27917.6
4.582,27774.4
4.586,26968.2
4.59,27001.4
4.594,26864.7
4.598,26329
4.602,26664.6
4.606,25914.2
4.61,25661.4
4.614,25686
4.618,24833
4.622,24728.6
4.626,24443.8
4.63,24215.7
4.634,23947.6
4.638,23552.9
4.642,23426
4.646,23380.8
4.65,22440.3
4.654,22512.9
4.658,22339.5
4.662,22119.6
4.666,21675.5
4.67,21251.3
4.674,20983.6
4.678,21099.6
4.682,20544.5
4.686,20302.7
4.69,20092.3
4.694,20274.8
4.698,19725.9
4.702,19452.8
4.706,19265.4
4.71,18801.5
4.714,18974.9
4.718,18675
4.722,18592.8
4.726,18159.2
4.73,17574.1
4.734,17497.3
4.738,17309.9
4.742,17400.3
4.746,17046.6
4.75,16762.2
4.754,16724
4.758,16398.4
4.762,16136.5
4.766,16182.3
4.77,15767.5
4.774,15688
4.778,15611.6
4.782,15210.9
4.786,14672.4
4.79,14816.3
4.794,14566.4
4.798,14267.8
4.802,14381.2
4.806,14032.9
4.81,14038.5
4.814,13904.2
4.818,13602.8
4.822,13302.1
4.826,13152.4
4.83,12748.7
4.834,12784.9
4.838,12630.4
4.842,12670.8
4.846,12300.5
4.85,12009.8
4.854,12077.3
4.858,11878.6
4.862,12013.8
4.866,11439.5
4.87,11229.9
4.874,11129.6
4.878,10970.6
4.882,10862
4.886,10747.8
4.89,10635.3
4.894,10408.2
4.898,10377.8
4.902,10222.4
4.906,9892.95
4.91,9715.96
4.914,9795.71
4.918,9598.17
4.922,9398.08
4.926,9192.37
4.93,9055.39
4.934,9023.84
4.938,9007.91
4.942,8834.03
4.946,8647.26
4.95,8680.28
4.954,8566.33
4.958,8477.73
4.962,8158.27
4.966,8140.84
4.97,7836.38
4.974,7673.41
4.978,7872.86
4.982,7897.52
4.986,7655.59
4.99,7418.63
4.994,7498.99
4.998,7126.91
5.002,7249.76
5.006,7051.36
5.01,6905.76
5.014,6930.45
5.018,6753.47
5.022,6670.07
5.026,6698.58
5.03,6406.1
5.034,6354.77
5.038,6183.52
5.042,5989.35
5.046,5950.06
5.05,5989.1
5.054,5762.96
5.058,5804.41
5.062,5773.76
5.066,5680.1
5.07,5558.03
5.074,5363.72
5.078,5406.79
5.082,5200.23
5.086,5181.8
5.09,5242.08
5.094,5154.52
5.098,5127.37
5.102,4961.15
5.106,5095.98
5.11,4913.99
5.114,4899.01
5.118,4728.7
5.122,4696.82
5.126,4575.68
5.13,4449.68
5.134,4669.36
5.138,4409.18
5.142,4139.85
5.146,4432.53
5.15,4313.31
5.154,4200.13
5.158,4214.18
5.162,4045.08
5.166,4109.97
5.17,4104.97
5.174,3827.15
5.178,3749.23
5.182,3761.94
5.186,3587.41
5.19,3701.54
5.194,3751.95
5.198,3618.39
5.202,3553.41
5.206,3477.67
5.21,3512.19
5.214,3475.21
5.218,3386.15
5.222,3411.87
5.226,3253.57
5.23,3174.57
5.234,3133.75
5.238,3182.98
5.242,3164.59
5.246,2941.4
5.25,2984.05
5.254,2935.69
5.258,3026
5.262,2763.04
5.266,2880.98
5.27,2715.65
5.274,2635.37
5.278,2532.66
5.282,2587.81
5.286,2605.75
5.29,2598.96
5.294,2584.57
5.298,2485.55
5.302,2581.19
5.306,2481.26
5.31,2487.19
5.314,2372.29
5.318,2343.05
5.322,2310.87
5.326,2291.3
5.33,2431.29
5.334,2156.34
5.338,2218.49
5.342,2171.35
5.346,2181.51
5.35,2016.54
5.354,2073.25
5.358,1972.41
5.362,2026.76
5.366,1920.36
5.37,1914.48
5.374,1892.32
5.378,1920.09
5.382,1821.25
5.386,1785.42
5.39,1682.8
5.394,1754.41
5.398,1779.9
5.402,1689.4
5.406,1682.69
5.41,1685.69
5.414,1672.4
5.418,1560.22
5.422,1581.59
5.426,1533.66
5.43,1455.12
5.434,1573.53
5.438,1494.22
5.442,1531.26
5.446,1459.45
5.45,1429.46
5.454,1291.27
5.458,1472.99
5.462,1390.15
5.466,1428.41
5.47,1324.87
5.474,1370.79
5.478,1382.62
5.482,1257.19
5.486,1235.48
5.49,1209
5.494,1116.57
5.498,1141.35
5.502,1091.59
5.506,1105.58
5.51,1070.35
5.514,1166.64
5.518,1142.47
5.522,1080.29
5.526,1088.14
5.53,1063.9
5.534,1001.6
5.538,1086.87
5.542,987.227
5.546,881.333
5.55,962.249
5.554,975.555
5.558,946.236
5.562,947.673
5.566,884.361
5.57,908.05
5.574,807.137
5.578,881.574
5.582,808.697
5.586,849.278
5.59,863.466
5.594,813.294
5.598,742.13
5.602,792.674
5.606,803.004
5.61,740.431
5.614,755.283
5.618,726.538
5.622,701.921
5.626,725.218
5.63,661.829
5.634,716.64
5.638,641.848
5.642,611.139
5.646,680.272
5.65,675.121
5.654,583.966
5.658,660.544
5.662,559.683
5.666,630.976
5.67,615.103
5.674,552.385
5.678,540.737
5.682,550.114
5.686,515.199
5.69,524.779
5.694,497.162
5.698,498.601
5.702,501.678
5.706,477.174
5.71,475.726
5.714,419.738
5.718,439.578
5.722,468.132
5.726,506.758
5.73,441.085
5.734,456.978
5.738,430.964
5.742,416.945
5.746,390.314
5.75,438.314
5.754,400.624
5.758,406.449
5.762,357.678
5.766,364.595
5.77,389.108
5.774,356.742
5.778,381.249
5.782,348.537
5.786,305.69
5.79,313.439
5.794,357.59
5.798,342.471
5.802,326.706
5.806,293.554
5.81,306.37
5.814,288.266
5.818,242.61
5.822,260.96
5.826,279.56
5.83,271.707
5.834,294.264
5.838,255.107
5.842,222.625
5.846,239.989
5.85,278.508
5.854,217.88
5.858,228.896
5.862,215.128
5.866,222.19
5.87,213.01
5.874,222.777
5.878,240.291
5.882,192.99
5.886,224.21
5.89,177.102
5.894,193.659
5.898,189.978
5.902,166.635
5.906,183.864
5.91,176.838
5.914,165.073
5.918,171.069
5.922,187.963
5.926,136.72
5.93,168.472
5.934,154.305
5.938,156.714
5.942,134.817
5.946,132.975
5.95,137.705
5.954,137.671
5.958,128.517
5.962,130.286
5.966,134.075
5.97,132.223
5.974,108.05
5.978,116.093
5.982,147.051
5.986,117.938
5.99,103.064
5.994,137.659
5.998,89.3026
6.002,86.6703
6.006,92.3421
6.01,101.185
6.014,102.452
6.018,103.152
6.022,115.301
6.026,94.0332
6.03,86.1382
6.034,85.1593
6.038,97.4695
6.042,77.6947
6.046,93.5945
6.05,81.7453
6.054,91.8464
6.058,69.1467
6.062,81.2485
6.066,72.8608
6.07,77.2738
6.074,56.1903
6.078,59.9801
6.082,70.09
6.086,63.5949
6.09,56.4041
6.094,57.7437
6.098,45.6421
6.102,52.7852
6.106,57.1223
6.11,59.8539
6.114,44.3338
6.118,50.5058
6.122,56.3256
6.126,50.95
6.13,56.664
6.134,47.5898
6.138,44.0704
6.142,36.0635
6.146,34.5776
6.15,34.4909
6.154,44.6124
6.158,40.2685
6.162,44.2391
6.166,23.0598
6.17,28.7488
6.174,37.9415
6.178,33.36
6.182,37.2299
6.186,40.4958
6.19,29.5518
6.194,32.5713
6.198,32.9956
6.202,23.0991
6.206,26.7231
6.21,17.8193
6.214,14.4162
6.218,33.0707
6.222,18.6458
6.226,27.0004
6.23,19.3479
6.234,18.9176
6.238,12.8958
6.242,18.0685
6.246,26.694
6.25,19.2288
6.254,20.3718
6.258,12.7517
6.262,10.7035
6.266,14.6277
6.27,10.9354
6.274,14.6828
6.278,9.94253
6.282,17.3107
6.286,5.24179
6.29,12.2874
6.294,5.88984
6.298,5.31679
6.302,16.874
6.306,8.77395
6.31,3.00327
6.314,9.21196
6.318,8.36244
6.322,8.98395
6.326,8.54284
6.33,8.61933
6.334,10.8653
6.338,1.62802
6.342,8.61192
6.346,10.0406
6.35,6.81081
6.354,6.25331
6.358,7.98764
6.362,6.27342
6.366,4.76058
6.37,0.406144
6.374,4.51842
6.378,4.59165
6.382,0
6.386,5.87476
6.39,0.43359
6.394,5.70772
6.398,2.09332
6.402,4.26962
6.406,3.06775
6.41,4.12367
6.414,4.58857
6.418,1.59596
6.422,3.45912
6.426,2.17647
6.43,1.85218
6.434,3.72836
6.438,2.35325
6.442,3.21702
6.446,3.10136
6.45,3.37522
6.454,0.573621
6.458,0
6.462,0.820306
6.466,4.48883
6.47,2.63113
6.474,2.86672
6.478,0
6.482,0.0363001
6.486,2.12704
6.49,1.06808
6.494,1.96307
6.498,1.99864
6.502,0.586852
6.506,0.13498
6.51,0
6.514,1.39191
6.518,0
6.522,3.13526
6.526,1.99357
6.53,0
6.534,0
6.538,0
6.542,0
6.546,0.867191
6.55,1.64129
6.554,0
6.558,0
6.562,1.12542
6.566,0
6.57,0
6.574,0
6.578,0
6.582,0
6.586,1.89025
6.59,0
6.594,0
6.598,0
6.602,0
6.606,0
6.61,0
6.614,0
6.618,0
6.622,0
6.626,0
6.63,0
6.634,0
6.638,0
6.642,0
6.646,0
6.65,0
6.654,0
6.658,0
6.662,0
6.666,0
6.67,0
6.674,0
6.678,0
6.682,0
6.686,0
6.69,0
6.694,0
6.698,0
6.702,0
6.706,0
6.71,0
6.714,0
6.718,0
6.722,0
6.726,0
6.73,0
6.734,0
6.738,0
6.742,0
6.746,0
6.75,0
6.754,0
6.758,0
6.762,0
6.766,0
6.77,0
6.774,0
6.778,0
6.782,0
6.786,0
6.79,0
6.794,0
6.798,0
6.802,0
6.806,0
6.81,0
6.814,0
6.818,0
6.822,0
6.826,0
6.83,0
6.834,0
6.838,0
6.842,0
6.846,0
6.85,0
6.854,0
6.858,0
6.862,0
6.866,0
6.87,0
6.874,0
6.878,0
6.882,0
6.886,0
6.89,0
6.894,0
6.898,0
6.902,0
6.906,0
6.91,0
6.914,0
6.918,0
6.922,0
6.926,0
6.93,0
6.934,0
6.938,0
6.942,0
6.946,0
6.95,0
6.954,0
6.958,0
6.962,0
6.966,0
6.97,0
6.974,0
6.978,0
6.982,0
6.986,0
6.99,0
6.994,0
6.998,0
7.002,0
7.006,0
7.01,0
7.014,0
7.018,0
7.022,0
7.026,0
7.03,0
7.034,0
7.038,0
7.042,0
7.046,0
7.05,0
7.054,0
7.058,0
7.062,0
7.066,0
7.07,0
7.074,0
7.078,0
7.082,0
7.086,0
7.09,0
7.094,0
7.098,0
7.102,0
7.106,0
7.11,0
7.114,0
7.118,0
7.122,0
7.126,0
7.13,0
7.134,0
7.138,0
7.142,0
7.146,0
7.15,0
7.154,0
7.158,0
7.162,0
7.166,0
7.17,0
7.174,0
7.178,0
7.182,0
7.186,0
7.19,0
7.194,0
7.198,0
7.202,0
7.206,0
7.21,0
7.214,0
7.218,0
7.222,0
7.226,0
7.23,0
7.234,0
7.238,0
7.242,0
7.246,0
7.25,0
7.254,0
7.258,0
7.262,0
7.266,0
7.27,0
7.274,0
7.278,0
7.282,0
7.286,0
7.29,0
7.294,0
7.298,0
7.302,0
7.306,0
7.31,0
7.314,0
7.318,0
7.322,0
7.326,0
7.33,0
7.334,0
7.338,0
7.342,0
7.346,0
7.35,0
7.354,0
7.358,0
7.362,0
7.366,0
7.37,0
7.374,0
7.378,0
7.382,0
7.386,0
7.39,0
7.394,0
7.398,0
7.402,0
7.406,0
7.41,0
7.414,0
7.418,0
7.422,0
7.426,0
7.43,0
7.434,0
7.438,0
7.442,0
7.446,0
7.45,0
7.454,0
7.458,0
7.462,0
7.466,0
7.47,0
7.474,0
7.478,0
7.482,0
7.486,0
7.49,0
7.494,0
7.498,0
7.502,0
7.506,0
7.51,0
7.514,0
7.518,0
7.522,0
7.526,0
7.53,0
7.534,0
7.538,0
7.542,0
7.546,0
7.55,0
7.554,0
7.558,0
7.562,0
7.566,0
7.57,0
7.574,0
7.578,0
7.582,0
7.586,0
7.59,0
7.594,0
7.598,0
7.602,0
7.606,0
7.61,0
7.614,0
7.618,0
7.622,0
7.626,0
7.63,0
7.634,0
7.638,0
7.642,0
7.646,0
7.65,0
7.654,0
7.658,0
7.662,0
7.666,0
7.67,0
7.674,0
7.678,0
7.682,0
7.686,0
7.69,0
7.694,0
7.698,0
7.702,0
7.706,0
7.71,0
7.714,0
7.718,0
7.722,0
7.726,0
7.73,0
7.734,0
7.738,0
7.742,0
7.746,0
7.75,0
7.754,0
7.758,0
7.762,0
7.766,0
7.77,0
7.774,0
7.778,0
7.782,0
7.786,0
7.79,0
7.794,0
7.798,0
7.802,0
7.806,0
7.81,0
7.814,0
7.818,0
7.822,0
7.826,0
7.83,0
7.834,0
7.838,0
7.842,0
7.846,0
7.85,0
7.854,0
7.858,0
7.862,0
7.866,0
7.87,0
7.874,0
7.878,0
7.882,0
7.886,0
7.89,0
7.894,0
7.898,0
7.902,0
7.906,0
7.91,0
7.914,0
7.918,0
7.922,0
7.926,0
7.93,0
7.934,0
7.938,0
7.942,0
7.946,0
7.95,0
7.954,0
7.958,0
7.962,0
7.966,0
7.97,0
7.974,0
7.978,0
7.982,0
7.986,0
7.99,0
7.994,0
