X,Y
-0.00125,0
0.00125,0
0.00375,0
0.00625,4651
0.00875,24342
0.01125,55392
0.01375,109632
0.01625,178040
0.01875,252755
0.02125,337457
0.02375,430087
0.02625,532426
0.02875,645079
0.03125,765364
0.03375,897111
0.03625,1.03786e+06
0.03875,1.18549e+06
0.04125,1.34238e+06
0.04375,1.51025e+06
0.04625,1.68259e+06
0.04875,1.86795e+06
0.05125,2.0562e+06
0.05375,2.25531e+06
0.05625,2.46467e+06
0.05875,2.67903e+06
0.06125,2.90221e+06
0.06375,3.13208e+06
0.06625,3.36514e+06
0.06875,3.61307e+06
0.07125,3.86138e+06
0.07375,4.1158e+06
0.07625,4.37411e+06
0.07875,4.64337e+06
0.08125,4.92298e+06
0.08375,5.1998e+06
0.08625,5.48318e+06
0.08875,5.77591e+06
0.09125,6.0749e+06
0.09375,6.36754e+06
0.09625,6.67977e+06
0.09875,6.98615e+06
0.10125,7.2984e+06
0.10375,7.61941e+06
0.10625,7.94705e+06
0.10875,8.27337e+06
0.11125,8.60217e+06
0.11375,8.92944e+06
0.11625,9.26759e+06
0.11875,9.60891e+06
0.12125,9.95018e+06
0.12375,1.02938e+07
0.12625,1.0639e+07
0.12875,1.09947e+07
0.13125,1.1343e+07
0.13375,1.16936e+07
0.13625,1.20581e+07
0.13875,1.24168e+07
0.14125,1.27721e+07
0.14375,1.3124e+07
0.14625,1.34855e+07
0.14875,1.38427e+07
0.15125,1.41912e+07
0.15375,1.45324e+07
0.15625,1.48657e+07
0.15875,1.51862e+07
0.16125,1.54891e+07
0.16375,1.58021e+07
0.16625,1.60894e+07
0.16875,1.63758e+07
0.17125,1.6645e+07
0.17375,1.69064e+07
0.17625,1.71549e+07
0.17875,1.73928e+07
0.18125,1.76306e+07
0.18375,1.78448e+07
0.18625,1.80576e+07
0.18875,1.82585e+07
0.19125,1.84499e+07
0.19375,1.86217e+07
0.19625,1.87942e+07
0.19875,1.89585e+07
0.20125,1.9101e+07
0.20375,1.92499e+07
0.20625,1.93921e+07
0.20875,1.9524e+07
0.21125,1.96506e+07
0.21375,1.97833e+07
0.21625,1.99106e+07
0.21875,2.0034e+07
0.22125,2.01458e+07
0.22375,2.02667e+07
0.22625,2.03902e+07
0.22875,2.05025e+07
0.23125,2.06094e+07
0.23375,2.07159e+07
0.23625,2.08217e+07
0.23875,2.09233e+07
0.24125,2.10353e+07
0.24375,2.11302e+07
0.24625,2.1233e+07
