X,Y
-0.00125,0
0.00125,0
0.00375,0
0.00625,630
0.00875,3223
0.01125,7458
0.01375,14579
0.01625,23985
0.01875,34020
0.02125,44988
0.02375,57894
0.02625,71531
0.02875,86765
0.03125,102442
0.03375,119936
0.03625,138519
0.03875,158942
0.04125,179529
0.04375,202787
0.04625,225111
0.04875,250034
0.05125,276036
0.05375,302103
0.05625,330294
0.05875,358710
0.06125,389578
0.06375,420694
0.06625,450745
0.06875,484037
0.07125,517121
0.07375,552158
0.07625,585848
0.07875,622749
0.08125,660796
0.08375,697235
0.08625,736691
0.08875,774875
0.09125,815895
0.09375,854512
0.09625,897176
0.09875,937103
0.10125,981970
0.10375,1.02307e+06
0.10625,1.06747e+06
0.10875,1.10946e+06
0.11125,1.15413e+06
0.11375,1.20082e+06
0.11625,1.2427e+06
0.11875,1.28964e+06
0.12125,1.33587e+06
0.12375,1.38336e+06
0.12625,1.43141e+06
0.12875,1.47517e+06
0.13125,1.52304e+06
0.13375,1.57124e+06
0.13625,1.62066e+06
0.13875,1.66802e+06
0.14125,1.71687e+06
0.14375,1.76446e+06
0.14625,1.813e+06
0.14875,1.86208e+06
0.15125,1.90965e+06
0.15375,1.95096e+06
0.15625,1.99841e+06
0.15875,2.04225e+06
0.16125,2.08362e+06
0.16375,2.12831e+06
0.16625,2.16528e+06
0.16875,2.20374e+06
0.17125,2.24302e+06
0.17375,2.27419e+06
0.17625,2.30964e+06
0.17875,2.34235e+06
0.18125,2.37012e+06
0.18375,2.40401e+06
0.18625,2.43324e+06
0.18875,2.45614e+06
0.19125,2.484e+06
0.19375,2.50986e+06
0.19625,2.52951e+06
0.19875,2.55231e+06
0.20125,2.5738e+06
0.20375,2.59502e+06
0.20625,2.61119e+06
0.20875,2.63065e+06
0.21125,2.64398e+06
0.21375,2.66228e+06
0.21625,2.6796e+06
0.21875,2.6944e+06
0.22125,2.71029e+06
0.22375,2.72498e+06
0.22625,2.73864e+06
0.22875,2.75639e+06
0.23125,2.76989e+06
0.23375,2.78423e+06
0.23625,2.80256e+06
0.23875,2.81174e+06
0.24125,2.82442e+06
0.24375,2.83799e+06
0.24625,2.85473e+06
