X,Y
-0.00125,0
0.00125,0
0.00375,0
0.00625,3707
0.00875,18865
0.01125,43818
0.01375,83751
0.01625,134435
0.01875,187270
0.02125,244529
0.02375,305981
0.02625,373908
0.02875,445609
0.03125,524400
0.03375,607943
0.03625,696198
0.03875,791332
0.04125,891732
0.04375,1.0006e+06
0.04625,1.11232e+06
0.04875,1.23059e+06
0.05125,1.35267e+06
0.05375,1.48116e+06
0.05625,1.61694e+06
0.05875,1.75515e+06
0.06125,1.89767e+06
0.06375,2.0501e+06
0.06625,2.19943e+06
0.06875,2.35793e+06
0.07125,2.52017e+06
0.07375,2.68563e+06
0.07625,2.85601e+06
0.07875,3.03046e+06
0.08125,3.20949e+06
0.08375,3.38903e+06
0.08625,3.57268e+06
0.08875,3.76131e+06
0.09125,3.95327e+06
0.09375,4.14791e+06
0.09625,4.34467e+06
0.09875,4.54645e+06
0.10125,4.74897e+06
0.10375,4.95192e+06
0.10625,5.16039e+06
0.10875,5.37137e+06
0.11125,5.5817e+06
0.11375,5.79985e+06
0.11625,6.01009e+06
0.11875,6.22762e+06
0.12125,6.44444e+06
0.12375,6.65832e+06
0.12625,6.87644e+06
0.12875,7.09926e+06
0.13125,7.32925e+06
0.13375,7.53666e+06
0.13625,7.7652e+06
0.13875,7.9874e+06
0.14125,8.19869e+06
0.14375,8.41964e+06
0.14625,8.63406e+06
0.14875,8.84428e+06
0.15125,9.05159e+06
0.15375,9.25805e+06
0.15625,9.45196e+06
0.15875,9.63935e+06
0.16125,9.82578e+06
0.16375,1.00015e+07
0.16625,1.01718e+07
0.16875,1.03412e+07
0.17125,1.04946e+07
0.17375,1.06456e+07
0.17625,1.07959e+07
0.17875,1.09386e+07
0.18125,1.10673e+07
0.18375,1.11993e+07
0.18625,1.13281e+07
0.18875,1.14457e+07
0.19125,1.15526e+07
0.19375,1.16679e+07
0.19625,1.17673e+07
0.19875,1.18642e+07
0.20125,1.1957e+07
0.20375,1.20524e+07
0.20625,1.21378e+07
0.20875,1.22256e+07
0.21125,1.23045e+07
0.21375,1.23823e+07
0.21625,1.24731e+07
0.21875,1.25398e+07
0.22125,1.2623e+07
0.22375,1.26963e+07
0.22625,1.27697e+07
0.22875,1.28415e+07
0.23125,1.29205e+07
0.23375,1.29868e+07
0.23625,1.30607e+07
0.23875,1.31343e+07
0.24125,1.31907e+07
0.24375,1.32571e+07
0.24625,1.33256e+07
