X,Y
-0.003125,0
0.003125,11
0.009375,1484
0.015625,7717
0.021875,16520
0.028125,27219
0.034375,39645
0.040625,54176
0.046875,70165
0.053125,87096
0.059375,105737
0.065625,126077
0.071875,146658
0.078125,170997
0.084375,194534
0.090625,219966
0.096875,246261
0.103125,275078
0.109375,303572
0.115625,332733
0.121875,362746
0.128125,393519
0.134375,424658
0.140625,456380
0.146875,487930
0.153125,519743
0.159375,548562
0.165625,575723
0.171875,601269
0.178125,622673
0.184375,641005
0.190625,660879
0.196875,676040
0.203125,686998
0.209375,700129
0.215625,709752
0.221875,719184
0.228125,729259
0.234375,739319
0.240625,749197
0.246875,756634
0.253125,762425
0.259375,771859
0.265625,777570
0.271875,786355
0.278125,791451
0.284375,796008
0.290625,800706
0.296875,807037
0.303125,809242
0.309375,813133
0.315625,816287
0.321875,818327
0.328125,819964
0.334375,822887
0.340625,822847
0.346875,824295
0.353125,826007
0.359375,825716
0.365625,825072
0.371875,825078
0.378125,823706
0.384375,823202
0.390625,819902
0.396875,818199
0.403125,817155
0.409375,815184
0.415625,810945
0.421875,806951
0.428125,804002
0.434375,798709
0.440625,794174
0.446875,791875
0.453125,786228
0.459375,781844
0.465625,776700
0.471875,772124
0.478125,767553
0.484375,761321
0.490625,754125
0.496875,748958
0.503125,743081
0.509375,736323
0.515625,731949
0.521875,724558
0.528125,718016
0.534375,710038
0.540625,706372
0.546875,698447
0.553125,690818
0.559375,684936
0.565625,679047
0.571875,673598
0.578125,667149
0.584375,660947
0.590625,654398
0.596875,649857
0.603125,644661
0.609375,638903
0.615625,633552
