X,Y
-0.00125,0
0.00125,0
0.00375,0
0.00625,1320
0.00875,6829
0.01125,15916
0.01375,30730
0.01625,49879
0.01875,69361
0.02125,89902
0.02375,113077
0.02625,137873
0.02875,163424
0.03125,190985
0.03375,220422
0.03625,251385
0.03875,285291
0.04125,320041
0.04375,358498
0.04625,397938
0.04875,438080
0.05125,479905
0.05375,524317
0.05625,570957
0.05875,619307
0.06125,668611
0.06375,721686
0.06625,774705
0.06875,828794
0.07125,885697
0.07375,943698
0.07625,1.00246e+06
0.07875,1.06264e+06
0.08125,1.12349e+06
0.08375,1.18714e+06
0.08625,1.25467e+06
0.08875,1.31804e+06
0.09125,1.38778e+06
0.09375,1.45408e+06
0.09625,1.5232e+06
0.09875,1.59356e+06
0.10125,1.66579e+06
0.10375,1.73731e+06
0.10625,1.81089e+06
0.10875,1.88291e+06
0.11125,1.96031e+06
0.11375,2.03524e+06
0.11625,2.11283e+06
0.11875,2.19108e+06
0.12125,2.26858e+06
0.12375,2.34829e+06
0.12625,2.42197e+06
0.12875,2.50351e+06
0.13125,2.58413e+06
0.13375,2.66054e+06
0.13625,2.74251e+06
0.13875,2.8284e+06
0.14125,2.9056e+06
0.14375,2.98481e+06
0.14625,3.06741e+06
0.14875,3.14279e+06
0.15125,3.22297e+06
0.15375,3.29973e+06
0.15625,3.37358e+06
0.15875,3.44219e+06
0.16125,3.52074e+06
0.16375,3.58571e+06
0.16625,3.64745e+06
0.16875,3.71414e+06
0.17125,3.77206e+06
0.17375,3.83409e+06
0.17625,3.89127e+06
0.17875,3.94336e+06
0.18125,3.99624e+06
0.18375,4.04486e+06
0.18625,4.08693e+06
0.18875,4.13556e+06
0.19125,4.17982e+06
0.19375,4.21763e+06
0.19625,4.25603e+06
0.19875,4.28861e+06
0.20125,4.32427e+06
0.20375,4.36074e+06
0.20625,4.39222e+06
0.20875,4.42128e+06
0.21125,4.4493e+06
0.21375,4.48154e+06
0.21625,4.50608e+06
0.21875,4.53878e+06
0.22125,4.5591e+06
0.22375,4.58727e+06
0.22625,4.61649e+06
0.22875,4.64201e+06
0.23125,4.67051e+06
0.23375,4.6921e+06
0.23625,4.71657e+06
0.23875,4.73985e+06
0.24125,4.768e+06
0.24375,4.7862e+06
0.24625,4.8108e+06
